{"name":"Listar usuarios","id":"validar-los-servicios-web-de-reqres;listar-usuarios","testSteps":[{"number":1,"description":"Dado que accedo al servicio de ReqRes","duration":117,"startTime":"2024-09-09T10:19:28.804845600-05:00[America/Bogota]","result":"SUCCESS","precondition":false,"level":0},{"number":2,"description":"Cuando realizo una solicitud GET al endpoint de \"Listar Usuarios\"","duration":2319,"startTime":"2024-09-09T10:19:28.924997500-05:00[America/Bogota]","result":"SUCCESS","precondition":false,"level":0,"children":[{"number":3,"description":"Hector list user","duration":2141,"startTime":"2024-09-09T10:19:29.097602100-05:00[America/Bogota]","result":"SUCCESS","precondition":false,"level":1}]},{"number":4,"description":"Entonces la respuesta debe contener la lista de usuarios en la página \"2\" y el estado del endpoint Listar usuarios debe ser \"200\".","duration":613,"startTime":"2024-09-09T10:19:31.245608500-05:00[America/Bogota]","result":"SUCCESS","precondition":false,"level":0,"children":[{"number":5,"description":"Then response validation list user should be (true)","duration":539,"startTime":"2024-09-09T10:19:31.311445800-05:00[America/Bogota]","result":"SUCCESS","reportData":[{"title":"BODY Response: ","contents":"{\"page\":2,\"per_page\":6,\"total\":12,\"total_pages\":2,\"data\":[{\"id\":7,\"email\":\"michael.lawson@reqres.in\",\"first_name\":\"Michael\",\"last_name\":\"Lawson\",\"avatar\":\"https://reqres.in/img/faces/7-image.jpg\"},{\"id\":8,\"email\":\"lindsay.ferguson@reqres.in\",\"first_name\":\"Lindsay\",\"last_name\":\"Ferguson\",\"avatar\":\"https://reqres.in/img/faces/8-image.jpg\"},{\"id\":9,\"email\":\"tobias.funke@reqres.in\",\"first_name\":\"Tobias\",\"last_name\":\"Funke\",\"avatar\":\"https://reqres.in/img/faces/9-image.jpg\"},{\"id\":10,\"email\":\"byron.fields@reqres.in\",\"first_name\":\"Byron\",\"last_name\":\"Fields\",\"avatar\":\"https://reqres.in/img/faces/10-image.jpg\"},{\"id\":11,\"email\":\"george.edwards@reqres.in\",\"first_name\":\"George\",\"last_name\":\"Edwards\",\"avatar\":\"https://reqres.in/img/faces/11-image.jpg\"},{\"id\":12,\"email\":\"rachel.howell@reqres.in\",\"first_name\":\"Rachel\",\"last_name\":\"Howell\",\"avatar\":\"https://reqres.in/img/faces/12-image.jpg\"}],\"support\":{\"url\":\"https://reqres.in/#support-heading\",\"text\":\"To keep ReqRes free, contributions towards server costs are appreciated!\"}}","isEvidence":false,"id":"report-data-d42786f8-9d1c-47bc-9561-c24497167a23"},{"title":"Estado Codigo es: ","contents":"200","isEvidence":false,"id":"report-data-ddb51ebd-64d3-4ade-aa86-0ef55a4d9cf2"},{"title":"page","contents":"2","isEvidence":false,"id":"report-data-e2055924-7705-4622-91f6-39660f17c845"}],"precondition":false,"level":1}]}],"userStory":{"id":"validar-los-servicios-web-de-reqres","storyName":"Validar los servicios web de Reqres","displayName":"Validar los servicios web de Reqres","path":"rest/validar_servicios_web_reqres.feature","narrative":"  Yo como TAE(Test automation engineer)\n  Quiero realizar una prueba de los servicios web de Reqres\n  Para comprobar el estado, la respuesta, la robustes y control de errores del servicio web\n  En Listar Usuarios, Crear nuevo usuario, Actualizar un usuario existente y Eliminar un usuario existente","type":"feature"},"featureTag":{"name":"Rest/Validar los servicios web de Reqres","type":"feature","displayName":"Rest/Validar los servicios web de Reqres"},"title":"Listar usuarios","description":"","backgroundTitle":"","backgroundDescription":"","tags":[{"name":"ApiWebRegres","type":"tag","displayName":"ApiWebRegres"},{"name":"ListUser","type":"tag","displayName":"ListUser"},{"name":"Rest","type":"capability","displayName":"Rest"},{"name":"Rest/Validar los servicios web de Reqres","type":"feature","displayName":"Validar los servicios web de Reqres"}],"startTime":"2024-09-09T10:19:28.549265400-05:00[America/Bogota]","duration":3313,"projectKey":"","isManualTestingUpToDate":false,"manual":false,"testSource":"Cucumber","actors":[{"name":"Hector","can":["browse the web","call an API at https://reqres.in"]}],"result":"SUCCESS"}